{
  "accept-language": "en-GB,en-US;q=0.9,en;q=0.8",
  "authorization": "Bearer AAAAAAAAAAAAAAAAAAAAANRILgAAAAAAnNwIzUejRCOuH5E6I8xnZz4puTs%3D1Zv7ttfk8LF81IUq16cHjhLTvJu4FA33AGWWjCpTnA",
  "cache-control": "no-cache",
  "cookie": "guest_id=v1%3A162319210145770913; g_state={'i_p':1645988135014,'i_l':4}; d_prefs=MToxLGNvbnNlbnRfdmVyc2lvbjoyLHRleHRfdmVyc2lvbjoxMDAw; guest_id_ads=v1%3A162319210145770913; guest_id_marketing=v1%3A162319210145770913; personalization_id='v1_c7h4RlUSUYHBOd07CxypXw=='; _gid=GA1.2.2100757843.1645412104; external_referer=vC8TI7P7q9UHtLBqrmGBr7Efy000uK1U|0|GlWr2u5wzZipnVja1ZbglFG7jRzcDRbyg7bgNkbeVpYIlDc9sLHSUwR1f0nSAW9OVgL97HR0p8Wtff0YyfN96oUJy%2FXW6mhC; ct0=ab824fec5d13672516229540348951c7; at_check=true; mbox=session#9a001ad93f0c40b0bda0554bb913f138#1645634398|PC#9a001ad93f0c40b0bda0554bb913f138.37_0#1708877338; _ga_34PHSZMC42=GS1.1.1645631856.1.1.1645632538.0; _ga=GA1.2.546988489.1645412104; gt=1496584944679854085",
  "pragma": "no-cache",
  "Referer": "https://twitter.com/",
  "sec-ch-ua": "\" Not A;Brand\";v=\"99\", \"Chromium\";v=\"98\", \"Google Chrome\";v=\"98\"",
  "sec-ch-ua-mobile": "?0",
  "sec-ch-ua-platform": "\"Windows\"",
  "sec-fetch-dest": "empty",
  "sec-fetch-mode": "cors",
  "sec-fetch-site": "same-origin",
  "User-Agent": "Mozilla/5.0 (Windows NT 10.0; Win64; x64) AppleWebKit/537.36 (KHTML, like Gecko) Chrome/98.0.4758.82 Safari/537.36",
  "x-csrf-token": "4e3e3ea4c75b1ebbadd034f338151609",
  "x-guest-token": "1496602053069705216",
  "x-twitter-active-user": "yes",
  "x-twitter-client-language": "en"
}